18:58:50 09.03.23
Buy  "Bitrue" BNB/ADA price: 906.6101
Sell "Binance" ADA/BNB price: 0.001103

Buy  "Bitrue" BNB/ADA price: 906.6101
Sell "CoinDCX" ADA/BNB price: 0.001103

Buy  "Bitrue" BNB/ADA price: 906.6101
Sell "Nominex" ADA/BNB price: 0.001103

